{
    "app-id": "org.karapulse.KarapulseDevel",
    "runtime": "org.gnome.Platform",
    "runtime-version": "3.38",
    "sdk": "org.gnome.Sdk",
    "command": "karapulse",
    "tags": [
        "nightly"
    ],
    "desktop-file-name-suffix": " (Devel)",
    "finish-args": [
        "--filesystem=host",
        "--share=ipc",
        "--share=network",
        "--socket=x11",
        "--socket=wayland",
        "--socket=pulseaudio",
        "--device=dri"
    ],
    "cleanup": [
        "/sdk",
        "/lib/node_modules",
        "/bin/npm",
        "/bin/node",
        "/bin/npx"
    ],
    "build-options": {
        "append-path": "/app/sdk/bin",
        "env": {
            "RUSTFLAGS": "--remap-path-prefix =../",
            "CARGO_HOME": "/run/build/karapulse/cargo",
            "RUST_BACKTRACE": "1",
            "RUST_LOG": "karapulse=debug"
        }
    },
    "modules": [
        {
            "name": "rust",
            "buildsystem": "simple",
            "sources": [
                {
                    "type": "archive",
                    "only-arches": [
                        "x86_64"
                    ],
                    "url": "https://static.rust-lang.org/dist/2020-01-07/rust-nightly-x86_64-unknown-linux-gnu.tar.gz",
                    "sha256": "98e563ba7db92511718112d54de0546793677e9942f26b2c7e91dc291bb958af"
                },
                {
                    "type": "archive",
                    "only-arches": [
                        "arm"
                    ],
                    "url": "https://static.rust-lang.org/dist/2020-01-07/rust-nightly-arm-unknown-linux-gnueabihf.tar.gz",
                    "sha256": "b609631b0047228b70ac0edf2c85b9a3fe81ddd3a0b9981b938b97fed90ca119"
                }
            ],
            "build-commands": [
                "./install.sh --prefix=/app/sdk --disable-ldconfig --verbose"
            ]
        },
        {
            "name": "nodejs",
            "buildsystem": "simple",
            "sources": [
                {
                    "type": "archive",
                    "only-arches": [
                        "x86_64"
                    ],
                    "url": "https://nodejs.org/dist/v12.13.1/node-v12.13.1-linux-x64.tar.xz",
                    "sha256": "aca06db37589966829b1ef0f163a5859b156a1d8e51b415bf47590f667c30a25"
                },
                {
                    "type": "archive",
                    "only-arches": [
                        "arm"
                    ],
                    "url": "https://nodejs.org/dist/v12.13.1/node-v12.13.1-linux-armv7l.tar.gz",
                    "sha256": "c078a009d21fc54e8d810af7d5b7952a7679891231be42caaca2d12a8cf446c2"
                }
            ],
            "build-commands": [
                "mkdir /app/sdk ; cp -r * /app/sdk/"
            ]
        },
        {
            "name": "karapulse",
            "buildsystem": "meson",
            "config-opts": [
                "-Dprofile=development",
                "-Dcdg-plugin=true",
                "-Dnpm-cache=/run/build/karapulse/npm-cache/",
                "-Doffline=true"
            ],
            "sources": [
                "npm-generated-sources.json",
		"cargo-generated-sources.json",
                {
                    "type": "git",
                    "url": "https://gitlab.freedesktop.org/gdesmott/karapulse.git"
                }
            ]
        }
    ]
}
